<?xml version="1.0" encoding="utf-8"?>
<!-- Generator: Adobe Illustrator 19.2.1, SVG Export Plug-In . SVG Version: 6.00 Build 0)  -->
<svg version="1.1" id="Warstwa_1" xmlns="http://www.w3.org/2000/svg" xmlns:xlink="http://www.w3.org/1999/xlink" x="0px" y="0px"
	 viewBox="0 0 664.4 128.3" style="enable-background:new 0 0 664.4 128.3;" xml:space="preserve">
<style type="text/css">
	.st0{fill:#1FB1FF;}
	.st1{fill:#FFFFFF;}
</style>
<rect x="232.2" y="69.4" class="st0" width="24.2" height="59"/>
<rect x="232.2" class="st1" width="24.2" height="63.8"/>
<rect x="153.3" y="38.3" transform="matrix(0.6151 -0.7885 0.7885 0.6151 40.244 183.3036)" class="st1" width="109.1" height="24.2"/>
<rect x="213.4" y="86" class="st0" width="61.1" height="24.2"/>
<rect x="164.8" y="86" class="st1" width="43.1" height="24.2"/>
<g>
	<path class="st1" d="M0,50.9h3.9l38,47.9V50.9h3.9v55h-3.1L3.9,57v48.9H0V50.9z"/>
	<path class="st1" d="M62.1,50.9h39.1v3.8H66.2v21.6h31.5v3.8H66.2v22.1h35.5v3.8H62.1V50.9z"/>
	<path class="st1" d="M130,54.7h-19.2v-3.8h42.5v3.8h-19.2v51.3H130V54.7z"/>
</g>
<g>
	<path class="st1" d="M296.8,47.5h19.5c18.5,0,31.2,12.7,31.2,29.2v0.2c0,16.5-12.7,29.4-31.2,29.4h-19.5V47.5z M301.1,51.5v50.7
		h15.2C332.7,102.1,343,91,343,77v-0.2c0-13.9-10.3-25.3-26.7-25.3H301.1z"/>
	<path class="st1" d="M359.8,77v-0.2c0-16,11.8-30.4,29.6-30.4c17.8,0,29.4,14.2,29.4,30.2v0.2c0,16-11.8,30.4-29.6,30.4
		C371.4,107.2,359.8,93,359.8,77z M414.3,77v-0.2c0-14.5-10.6-26.4-25.1-26.4c-14.5,0-24.9,11.7-24.9,26.3v0.2
		c0,14.5,10.6,26.4,25.1,26.4C403.9,103.2,414.3,91.5,414.3,77z"/>
	<path class="st1" d="M431,77v-0.2c0-16.6,12.4-30.4,29.4-30.4c10.5,0,16.8,3.9,22.8,9.4l-3.1,3.2c-5.1-4.9-11-8.6-19.8-8.6
		c-14.1,0-24.7,11.5-24.7,26.3v0.2c0,14.8,10.8,26.4,24.8,26.4c8.5,0,14.3-3.3,20.2-9.1l2.9,2.9c-6.2,6.1-12.9,10.2-23.3,10.2
		C443.5,107.2,431,93.8,431,77z"/>
	<path class="st1" d="M511.8,51.5h-20.5v-4h45.3v4h-20.5v54.7h-4.4V51.5z"/>
	<path class="st1" d="M542.7,77v-0.2c0-16,11.8-30.4,29.6-30.4c17.8,0,29.4,14.2,29.4,30.2v0.2c0,16-11.8,30.4-29.6,30.4
		C554.3,107.2,542.7,93,542.7,77z M597.2,77v-0.2c0-14.5-10.6-26.4-25.1-26.4c-14.5,0-24.9,11.7-24.9,26.3v0.2
		c0,14.5,10.6,26.4,25.1,26.4C586.8,103.2,597.2,91.5,597.2,77z"/>
	<path class="st1" d="M616.6,47.5h24.7c7.2,0,13,2.3,16.5,5.8c2.8,2.8,4.4,6.7,4.4,10.9v0.2c0,9.8-7.3,15.4-17.2,16.8l19.4,25.1
		h-5.5l-18.7-24.3h-19.2v24.3h-4.4V47.5z M640.7,77.9c9.8,0,17.1-4.9,17.1-13.4v-0.2c0-7.9-6.2-12.8-16.9-12.8h-20v26.4H640.7z"/>
</g>
</svg>
