<?xml version="1.0" encoding="utf-8"?>
<!-- Generator: Adobe Illustrator 20.1.0, SVG Export Plug-In . SVG Version: 6.00 Build 0)  -->
<svg version="1.1" id="Warstwa_1" xmlns="http://www.w3.org/2000/svg" xmlns:xlink="http://www.w3.org/1999/xlink" x="0px" y="0px"
	 viewBox="0 0 152.2 77.1" style="enable-background:new 0 0 152.2 77.1;" xml:space="preserve">
<style type="text/css">
	.st0{fill:#FFFFFF;}
</style>
<path class="st0" d="M3.8,75.1c1.6-0.1,7.8-0.2,11.6-0.2c4.5,0,14.9,0.1,15.6,0.2c1.3,0.2,1.6-0.4,1.6-1.3c0-0.5-0.1-1.1-0.8-1.2
	c-2.8-0.3-5.6-0.2-7.9-0.4c-1.5-0.1-2.8-0.1-3.6-1c-0.8-0.9-0.9-2.5-0.9-4.7c-0.1-5.8-0.3-37.1-0.3-37.1s0.2-6.6,0.4-7.5
	s0-1.5,1.5-1.5c11.7,0,24.9-2.6,33.5,7.2c4.9,5.5,2.9,17,1.6,19.7c-1.4,2.7-3.6,7-9.1,8.1c-3.5,0.7-5.1-0.1-8.4-0.3
	c-0.5,0-1,0-0.9,0.5c0.2,0.9,1.3,2.2,3.3,3.1c1.5,0.6,3.2,1.1,5,1.1c24.9,0.7,29-38.4,4.4-42.2c-2.8-0.4-6.6-0.8-12.4-0.6
	c-5.6,0.2-11.7-0.1-17.1-0.1c-6,0-12.1-0.2-18.1-0.3c-0.9,0-1.8,0.1-2.1,0.3C0.2,17.1,0,17.6,0,18.1c0,1.7,1.2,1.6,2.6,1.7
	c2,0.2,5.8,0.1,6.5,0.2c0.7,0.1,1.9,0.3,2.1,1.6c0.3,1.3,0,30.8,0,30.8c0,5.5,0.3,11.2-0.2,16.6c-0.1,1.3-0.5,2.6-1.4,3.1
	c-0.7,0.4-1.8,0.3-3.5,0.3c-0.6,0-1.7,0-2.5,0c-0.9,0-1.5,0.2-1.4,1.3C2.4,74.7,3.1,75.1,3.8,75.1"/>
<path class="st0" d="M123,73.4C104,73.7,95.5,56,98.1,38.9c1.7-10.7,9.9-18.6,21.1-18.6c4.7,0,12.7,1.7,17.6,7.2
	C148.7,41,144.7,73.2,123,73.4 M135.5,19.1c-5-1.9-11.1-2.3-15.2-2.3c-3.9,0-8.8,0.5-13.4,2.4c-15.7,6.4-21,23.9-16,38.9
	c2.5,7.6,8.6,14.3,16.2,17c15.2,5.4,35-1,41.9-16.1C155.8,44.2,151.5,25.4,135.5,19.1"/>
<path class="st0" d="M72.1,56.8c0,0-0.2-41.8-0.2-44.2c0-1.2,0.5-5.6-1.7-5.6c-1,0-8.1,0.1-11,0.1c-1.4,0-2.8-0.2-3.8,0.9
	s-1.5,2.5-2.1,3.8c-0.8,1.7-1.4,3.4-1.8,3.8c-0.1,0.1-0.3,0.2-0.4,0.4c-0.6,0.4-1.5,0.4-2-0.1c-0.4-0.4-0.6-0.6-0.4-1.5
	c0.6-2.6,1.7-4.8,2.1-7.6c0.2-1.7,0.3-3.4,0.6-5.1c0.1-0.4,0.2-0.8,0.4-1.1c0.4-0.5,1-0.8,1.6-0.7C54.3,0,54.5,1,54.7,1.7
	s0.2,1.9,0.8,1.9s32.2-0.3,32.2-0.3l45.1,0.3c0,0,3.7,0.1,4.1-0.2c0.3-0.4,0.4-1,0.6-1.8c0.2-0.8,0.5-1.5,1.4-1.6
	c0.8-0.1,1.4,0.5,1.1,2.1c-0.3,1.6,0.1,6.5,0,9.1c-0.1,2.5,0.4,4,0.1,4.7c-0.3,0.7-1.5,0.9-2.2,0.4s-0.6-4.7-0.9-6.4
	c-0.3-1.7-0.1-2.6-1.2-3c-1.1-0.4-51.1,0-51.6,0S80.8,6.7,80,7.2C79.6,7.4,79.6,8,79.6,9c0,0.9,0,2.1,0,3.3
	c0.1,2.3,0.5,53.2,0.5,53.2s-0.3,4.8,0.6,5.8s1.2,1.1,3.4,1.2c2.2,0.1,4.1-0.2,4.6,0.1c0.5,0.2,0.3,1.9,0.3,1.9s0,0.4-0.4,0.6
	s-1.6,0.2-2.8,0.1C83.3,75,71.7,75,68.7,75s-4.8,0.5-5.5,0c-0.6-0.5-0.3-2.4,0.2-2.5s0.7-0.1,2.4-0.1s4,0.1,4.8-0.6s1.3-1.9,1.3-4.1
	S72.1,56.8,72.1,56.8"/>
<path class="st0" d="M118.6,44.1c0,1.9-1.4,3.4-3.1,3.4s-3.1-1.5-3.1-3.4s1.4-3.4,3.1-3.4C117.2,40.6,118.6,42.2,118.6,44.1
	 M134.8,46.9c0-8.1-6.6-14.7-14.7-14.7s-14.7,6.6-14.7,14.7s6.6,14.7,14.7,14.7C128.2,61.5,134.8,54.9,134.8,46.9"/>
</svg>
